dump.vcd
$date
	Tue Jun 20 10:17:11 2023
$end

$version
	Synopsys VCS version S-2021.09
$end

$timescale
	1ns
$end

$comment Csum: 1 edc4d2f23f8f4742 $end


$scope module $unit $end
$upscope $end


$scope module test $end
$var reg 1 ! pclk $end
$var reg 1 " rst_n $end
$var reg 32 # paddr [31:0] $end
$var reg 1 $ psel $end
$var reg 1 % penable $end
$var reg 1 & pwrite $end
$var reg 32 ' prdata [31:0] $end
$var reg 32 ( pwdata [31:0] $end

$scope begin unnamed$$_vcs_4 $end
$upscope $end


$scope begin unnamed$$_vcs_0 $end
$upscope $end


$scope begin unnamed$$_vcs_1 $end
$upscope $end


$scope begin unnamed$$_vcs_2 $end
$upscope $end


$scope begin unnamed$$_vcs_3 $end
$upscope $end


$scope module apb_if $end
$var reg 1 ) pclk $end
$var reg 1 * rst_n $end
$var reg 32 + paddr [31:0] $end
$var reg 1 , psel $end
$var reg 1 - penable $end
$var reg 1 . pwrite $end
$var reg 32 / pwdata [31:0] $end
$var reg 1 0 pready $end
$var reg 32 1 prdata [31:0] $end
$upscope $end


$scope module dut $end
$var reg 2 2 apb_st [1:0] $end
$var reg 2 3 SETUP [1:0] $end
$var reg 2 4 W_ENABLE [1:0] $end
$var reg 2 5 R_ENABLE [1:0] $end

$scope begin unnamed$$_0 $end
$upscope $end

$upscope $end

$upscope $end


$scope module uvm_pkg $end
$var reg 32 6 UVM_UNBOUNDED_CONNECTIONS [31:0] $end
$var reg 1 7 uvm_start_uvm_declarations $end
$var time 64 8 setting_offset $end
$var reg 32 9 setting_verbosity [31:0] $end
$var reg 1 : is_verdi_set_verbosity_called $end
$var reg 32 ; uvm_global_random_seed [31:0] $end
$upscope $end

$enddefinitions $end

#0
$dumpvars
0:
17
bxxxxxxxxxxxxxxxxxxxxxxxxxxxxxxxxxxxxxxxxxxxxxxxxxxxxxxxxxxxxxxxx 8
b11111111111111111111111111111111 6
b00000000000000000000000000000000 9
b01000010000001111100110001000111 ;
b10 5
b00 3
b01 4
b00 2
b00000000000000000000000000000000 1
bxxxxxxxxxxxxxxxxxxxxxxxxxxxxxxxx /
bxxxxxxxxxxxxxxxxxxxxxxxxxxxxxxxx +
bxxxxxxxxxxxxxxxxxxxxxxxxxxxxxxxx (
bxxxxxxxxxxxxxxxxxxxxxxxxxxxxxxxx '
x&
x%
x$
bxxxxxxxxxxxxxxxxxxxxxxxxxxxxxxxx #
x"
x!
0)
x-
10
x,
x.
0*
$end
#10
1)
1*
0,
0-
#20
0)
#30
1)
b00000000000000000000000001011110 +
0.
1,
#40
0)
#50
1)
b00000000000000000000000001011110 1
b10 2
1-
#60
0)
#70
1)
b00 2
0,
0-
#80
0)
#90
1)
b00000000000000000000000000000000 1
#100
0)
#110
1)
b00000000000000000000000010100111 +
1,
#120
0)
#130
1)
b00000000000000000000000010100111 1
b10 2
1-
#140
0)
#150
1)
b00 2
0,
0-
#160
0)
#170
1)
b00000000000000000000000000000000 1
#180
0)
#190
1)
b00000000000000000000000011000001 +
b00000000000000000000000010000010 /
1.
1,
#200
0)
#210
1)
b01 2
1-
#220
0)
#230
1)
b00 2
0,
0-
#240
0)
#250
1)
#260
0)
#270
1)
b00000000000000000000000000010101 +
0.
1,
#280
0)
#290
1)
b00000000000000000000000000010101 1
b10 2
1-
#300
0)
#310
1)
b00 2
0,
0-
#320
0)
#330
1)
b00000000000000000000000000000000 1
#340
0)
#350
1)
b00000000000000000000000010110011 +
b00000000000000000000000000010000 /
1.
1,
#360
0)
#370
1)
b01 2
1-
#380
0)
#390
1)
b00 2
0,
0-
#400
0)
#410
1)
#420
0)
#430
1)
b00000000000000000000000011011110 +
b00000000000000000000000001011110 /
1,
#440
0)
#450
1)
b01 2
1-
#460
0)
#470
1)
b00 2
0,
0-
#480
0)
#490
1)
#500
0)
#510
1)
b00000000000000000000000000111011 +
b00000000000000000000000001101110 /
1,
#520
0)
#530
1)
b01 2
1-
#540
0)
#550
1)
b00 2
0,
0-
#560
0)
#570
1)
#580
0)
#590
1)
b00000000000000000000000001000001 +
b00000000000000000000000010101000 /
1,
#600
0)
#610
1)
b01 2
1-
#620
0)
#630
1)
b00 2
0,
0-
#640
0)
#650
1)
#660
0)
#670
1)
b00000000000000000000000000111000 +
0.
1,
#680
0)
#690
1)
b00000000000000000000000000111000 1
b10 2
1-
#700
0)
#710
1)
b00 2
0,
0-
#720
0)
#730
1)
b00000000000000000000000000000000 1
#740
0)
#750
1)
b00000000000000000000000001110010 +
b00000000000000000000000001101001 /
1.
1,
#760
0)
#770
1)
b01 2
1-
#780
0)
#790
1)
b00 2
0,
0-
#800
0)
#810
1)
#820
0)
#830
1)
b00000000000000000000000011011101 +
0.
1,
#840
0)
#850
1)
b00000000000000000000000011011101 1
b10 2
1-
#860
0)
#870
1)
b00 2
0,
0-
#880
0)
#890
1)
b00000000000000000000000000000000 1
#900
0)
#910
1)
b00000000000000000000000011100110 +
b00000000000000000000000011101001 /
1.
1,
#920
0)
#930
1)
b01 2
1-
#940
0)
#950
1)
b00 2
0,
0-
#960
0)
#970
1)
#980
0)
#990
1)
b00000000000000000000000001011000 +
0.
1,
#1000
0)
#1010
1)
b00000000000000000000000001011000 1
b10 2
1-
#1020
0)
#1030
1)
b00 2
0,
0-
#1040
0)
#1050
1)
b00000000000000000000000000000000 1
#1060
0)
#1070
1)
b00000000000000000000000001010101 +
b00000000000000000000000011001011 /
1.
1,
#1080
0)
#1090
1)
b01 2
1-
#1100
0)
#1110
1)
b00 2
0,
0-
#1120
0)
#1130
1)
#1140
0)
#1150
1)
b00000000000000000000000001001011 +
0.
1,
#1160
0)
#1170
1)
b00000000000000000000000001001011 1
b10 2
1-
#1180
0)
#1190
1)
b00 2
0,
0-
#1200
0)
#1210
1)
b00000000000000000000000000000000 1
#1220
0)
#1230
1)
b00000000000000000000000001011110 +
1,
#1240
0)
#1250
1)
b00000000000000000000000001011110 1
b10 2
1-
#1260
0)
#1270
1)
b00 2
0,
0-
#1280
0)
#1290
1)
b00000000000000000000000000000000 1
#1300
0)
#1310
1)
b00000000000000000000000000001010 +
1,
#1320
0)
#1330
1)
b00000000000000000000000000001010 1
b10 2
1-
#1340
0)
#1350
1)
b00 2
0,
0-
#1360
0)
#1370
1)
b00000000000000000000000000000000 1
#1380
0)
#1390
1)
b00000000000000000000000010000011 +
1,
#1400
0)
#1410
1)
b00000000000000000000000010000011 1
b10 2
1-
#1420
0)
#1430
1)
b00 2
0,
0-
#1440
0)
#1450
1)
b00000000000000000000000000000000 1
#1460
0)
#1470
1)
b00000000000000000000000000110100 +
1,
#1480
0)
#1490
1)
b00000000000000000000000000110100 1
b10 2
1-
#1500
0)
#1510
1)
b00 2
0,
0-
#1520
0)
#1530
1)
b00000000000000000000000000000000 1
#1540
0)
#1550
1)
b00000000000000000000000011101110 +
1,
#1560
0)
#1570
1)
b00000000000000000000000011101110 1
b10 2
1-
#1580
0)
#1590
1)
b00 2
0,
0-
#1600
0)
#1610
1)
b00000000000000000000000000000000 1
#1620
0)
#1630
1)
b00000000000000000000000010111110 +
1,
#1640
0)
#1650
1)
b00000000000000000000000010111110 1
b10 2
1-
#1660
0)
#1670
1)
b00 2
0,
0-
#1680
0)
#1690
1)
b00000000000000000000000000000000 1
#1700
0)
#1710
1)
b00000000000000000000000001110011 +
b00000000000000000000000010010000 /
1.
1,
#1720
0)
#1730
1)
b01 2
1-
#1740
0)
#1750
1)
b00 2
0,
0-
#1760
0)
#1770
1)
#1780
0)
#1790
1)
b00000000000000000000000001111101 +
b00000000000000000000000000101010 /
1,
#1800
0)
#1810
1)
b01 2
1-
#1820
0)
#1830
1)
b00 2
0,
0-
#1840
0)
#1850
1)
#1860
0)
#1870
1)
b00000000000000000000000000000100 +
0.
1,
#1880
0)
#1890
1)
b00000000000000000000000000000100 1
b10 2
1-
#1900
0)
#1910
1)
b00 2
0,
0-
#1920
0)
#1930
1)
b00000000000000000000000000000000 1
#1940
0)
#1950
1)
b00000000000000000000000001101011 +
b00000000000000000000000001110101 /
1.
1,
#1960
0)
#1970
1)
b01 2
1-
#1980
0)
#1990
1)
b00 2
0,
0-
#2000
0)
#2010
1)
#2020
0)
#2030
1)
b00000000000000000000000011110100 +
b00000000000000000000000001101110 /
1,
#2040
0)
#2050
1)
b01 2
1-
#2060
0)
#2070
1)
b00 2
0,
0-
#2080
0)
#2090
1)
#2100
0)
#2110
1)
b00000000000000000000000001111111 +
0.
1,
#2120
0)
#2130
1)
b00000000000000000000000001111111 1
b10 2
1-
#2140
0)
#2150
1)
b00 2
0,
0-
#2160
0)
#2170
1)
b00000000000000000000000000000000 1
#2180
0)
#2190
1)
b00000000000000000000000000000011 +
1,
#2200
0)
#2210
1)
b00000000000000000000000000000011 1
b10 2
1-
#2220
0)
#2230
1)
b00 2
0,
0-
#2240
0)
#2250
1)
b00000000000000000000000000000000 1
#2260
0)
#2270
1)
b00000000000000000000000010100111 +
1,
#2280
0)
#2290
1)
b00000000000000000000000010100111 1
b10 2
1-
#2300
0)
#2310
1)
b00 2
0,
0-
#2320
0)
#2330
1)
b00000000000000000000000000000000 1
#2340
0)
#2350
1)
b00000000000000000000000000000001 +
b00000000000000000000000010110001 /
1.
1,
#2360
0)
#2370
1)
b01 2
1-
#2380
0)
#2390
1)
b00 2
0,
0-
#2400
0)
#2410
1)
#2420
0)
#2430
1)
b00000000000000000000000000101000 +
0.
1,
#2440
0)
#2450
1)
b00000000000000000000000000101000 1
b10 2
1-
#2460
0)
#2470
1)
b00 2
0,
0-
#2480
0)
#2490
1)
b00000000000000000000000000000000 1
#2500
0)
#2510
1)
b00000000000000000000000010011000 +
b00000000000000000000000011101000 /
1.
1,
#2520
0)
#2530
1)
b01 2
1-
#2540
0)
#2550
1)
b00 2
0,
0-
#2560
0)
#2570
1)
#2580
0)
#2590
1)
b00000000000000000000000011100011 +
b00000000000000000000000001111001 /
1,
#2600
0)
#2610
1)
b01 2
1-
#2620
0)
#2630
1)
b00 2
0,
0-
#2640
0)
#2650
1)
#2660
0)
#2670
1)
b00000000000000000000000010101101 +
b00000000000000000000000010011011 /
1,
#2680
0)
#2690
1)
b01 2
1-
#2700
0)
#2710
1)
b00 2
0,
0-
#2720
0)
#2730
1)
#2740
0)
#2750
1)
b00000000000000000000000010000011 +
b00000000000000000000000011110010 /
1,
#2760
0)
#2770
1)
b01 2
1-
#2780
0)
#2790
1)
b00 2
0,
0-
#2800
0)
#2810
1)
#2820
0)
#2830
1)
b00000000000000000000000011100010 +
0.
1,
#2840
0)
#2850
1)
b00000000000000000000000011100010 1
b10 2
1-
#2860
0)
#2870
1)
b00 2
0,
0-
#2880
0)
#2890
1)
b00000000000000000000000000000000 1
#2900
0)
#2910
1)
b00000000000000000000000010101010 +
b00000000000000000000000001010001 /
1.
1,
#2920
0)
#2930
1)
b01 2
1-
#2940
0)
#2950
1)
b00 2
0,
0-
#2960
0)
#2970
1)
#2980
0)
#2990
1)
b00000000000000000000000010100010 +
0.
1,
#3000
0)
#3010
1)
b00000000000000000000000010100010 1
b10 2
1-
#3020
0)
#3030
1)
b00 2
0,
0-
#3040
0)
#3050
1)
b00000000000000000000000000000000 1
#3060
0)
#3070
1)
b00000000000000000000000010001101 +
b00000000000000000000000000000100 /
1.
1,
#3080
0)
#3090
1)
b01 2
1-
#3100
0)
#3110
1)
b00 2
0,
0-
#3120
0)
#3130
1)
#3140
0)
#3150
1)
b00000000000000000000000001001001 +
0.
1,
#3160
0)
#3170
1)
b00000000000000000000000001001001 1
b10 2
1-
#3180
0)
#3190
1)
b00 2
0,
0-
#3200
0)
#3210
1)
b00000000000000000000000000000000 1
#3220
0)
#3230
1)
b00000000000000000000000010111111 +
b00000000000000000000000011100111 /
1.
1,
#3240
0)
#3250
1)
b01 2
1-
#3260
0)
#3270
1)
b00 2
0,
0-
#3280
0)
#3290
1)
#3300
0)
#3310
1)
b00000000000000000000000011100010 +
0.
1,
#3320
0)
#3330
1)
b00000000000000000000000011100010 1
b10 2
1-
#3340
0)
#3350
1)
b00 2
0,
0-
#3360
0)
#3370
1)
b00000000000000000000000000000000 1
#3380
0)
#3390
1)
b00000000000000000000000000101110 +
b00000000000000000000000010001110 /
1.
1,
#3400
0)
#3410
1)
b01 2
1-
#3420
0)
#3430
1)
b00 2
0,
0-
#3440
0)
#3450
1)
#3460
0)
#3470
1)
b00000000000000000000000001110001 +
0.
1,
#3480
0)
#3490
1)
b00000000000000000000000001110001 1
b10 2
1-
#3500
0)
#3510
1)
b00 2
0,
0-
#3520
0)
#3530
1)
b00000000000000000000000000000000 1
#3540
0)
#3550
1)
b00000000000000000000000001101000 +
1,
#3560
0)
#3570
1)
b00000000000000000000000001101000 1
b10 2
1-
#3580
0)
#3590
1)
b00 2
0,
0-
#3600
0)
#3610
1)
b00000000000000000000000000000000 1
#3620
0)
#3630
1)
b00000000000000000000000000111101 +
1,
#3640
0)
#3650
1)
b00000000000000000000000000111101 1
b10 2
1-
#3660
0)
#3670
1)
b00 2
0,
0-
#3680
0)
#3690
1)
b00000000000000000000000000000000 1
#3700
0)
#3710
1)
b00000000000000000000000001000000 +
b00000000000000000000000011001001 /
1.
1,
#3720
0)
#3730
1)
b01 2
1-
#3740
0)
#3750
1)
b00 2
0,
0-
#3760
0)
#3770
1)
#3780
0)
#3790
1)
b00000000000000000000000010001101 +
0.
1,
#3800
0)
#3810
1)
b00000000000000000000000000000100 1
b10 2
1-
#3820
0)
#3830
1)
b00 2
0,
0-
#3840
0)
#3850
1)
b00000000000000000000000000000000 1
#3860
0)
#3870
1)
b00000000000000000000000010010001 +
1,
#3880
0)
#3890
1)
b00000000000000000000000010010001 1
b10 2
1-
#3900
0)
#3910
1)
b00 2
0,
0-
#3920
0)
#3930
1)
b00000000000000000000000000000000 1
#3940
0)
#3950
1)
b00000000000000000000000010101010 +
1,
#3960
0)
#3970
1)
b00000000000000000000000001010001 1
b10 2
1-
#3980
0)
#3990
1)
b00 2
0,
0-
#4000
0)
#4010
1)
b00000000000000000000000000000000 1
#4020
0)
#4030
1)
b00000000000000000000000010011110 +
b00000000000000000000000001001010 /
1.
1,
#4040
0)
#4050
1)
b01 2
1-
#4060
0)
#4070
1)
b00 2
0,
0-
#4080
0)
#4090
1)
#4100
0)
#4110
1)
b00000000000000000000000010001010 +
b00000000000000000000000010000001 /
1,
#4120
0)
#4130
1)
b01 2
1-
#4140
0)
#4150
1)
b00 2
0,
0-
#4160
0)
#4170
1)
#4180
0)
#4190
1)
b00000000000000000000000000111110 +
0.
1,
#4200
0)
#4210
1)
b00000000000000000000000000111110 1
b10 2
1-
#4220
0)
#4230
1)
b00 2
0,
0-
#4240
0)
#4250
1)
b00000000000000000000000000000000 1
#4260
0)
#4270
1)
b00000000000000000000000010101110 +
1,
#4280
0)
#4290
1)
b00000000000000000000000010101110 1
b10 2
1-
#4300
0)
#4310
1)
b00 2
0,
0-
#4320
0)
#4330
1)
b00000000000000000000000000000000 1
#4340
0)
#4350
1)
b00000000000000000000000010111001 +
1,
#4360
0)
#4370
1)
b00000000000000000000000010111001 1
b10 2
1-
#4380
0)
#4390
1)
b00 2
0,
0-
#4400
0)
#4410
1)
b00000000000000000000000000000000 1
#4420
0)
#4430
1)
b00000000000000000000000011100001 +
1,
#4440
0)
#4450
1)
b00000000000000000000000011100001 1
b10 2
1-
#4460
0)
#4470
1)
b00 2
0,
0-
#4480
0)
#4490
1)
b00000000000000000000000000000000 1
#4500
0)
#4510
1)
b00000000000000000000000001011110 +
b00000000000000000000000011010101 /
1.
1,
#4520
0)
#4530
1)
b01 2
1-
#4540
0)
#4550
1)
b00 2
0,
0-
#4560
0)
#4570
1)
#4580
0)
#4590
1)
b00000000000000000000000001111101 +
0.
1,
#4600
0)
#4610
1)
b00000000000000000000000000101010 1
b10 2
1-
#4620
0)
#4630
1)
b00 2
0,
0-
#4640
0)
#4650
1)
b00000000000000000000000000000000 1
#4660
0)
#4670
1)
b00000000000000000000000011110100 +
b00000000000000000000000010000000 /
1.
1,
#4680
0)
#4690
1)
b01 2
1-
#4700
0)
#4710
1)
b00 2
0,
0-
#4720
0)
#4730
1)
#4740
0)
#4750
1)
b00000000000000000000000000111111 +
0.
1,
#4760
0)
#4770
1)
b00000000000000000000000000111111 1
b10 2
1-
#4780
0)
#4790
1)
b00 2
0,
0-
#4800
0)
#4810
1)
b00000000000000000000000000000000 1
#4820
0)
#4830
1)
b00000000000000000000000011010100 +
1,
#4840
0)
#4850
1)
b00000000000000000000000011010100 1
b10 2
1-
#4860
0)
#4870
1)
b00 2
0,
0-
#4880
0)
#4890
1)
b00000000000000000000000000000000 1
#4900
0)
#4910
1)
b00000000000000000000000001110011 +
1,
#4920
0)
#4930
1)
b00000000000000000000000010010000 1
b10 2
1-
#4940
0)
#4950
1)
b00 2
0,
0-
#4960
0)
#4970
1)
b00000000000000000000000000000000 1
#4980
0)
#4990
1)
b00000000000000000000000010001111 +
1,
#5000
0)
#5010
1)
b00000000000000000000000010001111 1
b10 2
1-
#5020
0)
#5030
1)
b00 2
0,
0-
#5040
0)
#5050
1)
b00000000000000000000000000000000 1
#5060
0)
#5070
1)
b00000000000000000000000011111101 +
1,
#5080
0)
#5090
1)
b00000000000000000000000011111101 1
b10 2
1-
#5100
0)
#5110
1)
b00 2
0,
0-
#5120
0)
#5130
1)
b00000000000000000000000000000000 1
#5140
0)
#5150
1)
b00000000000000000000000010001110 +
1,
#5160
0)
#5170
1)
b00000000000000000000000010001110 1
b10 2
1-
#5180
0)
#5190
1)
b00 2
0,
0-
#5200
0)
#5210
1)
b00000000000000000000000000000000 1
#5220
0)
#5230
1)
b00000000000000000000000001111101 +
b00000000000000000000000010001101 /
1.
1,
#5240
0)
#5250
1)
b01 2
1-
#5260
0)
#5270
1)
b00 2
0,
0-
#5280
0)
#5290
1)
#5300
0)
#5310
1)
b00000000000000000000000000101100 +
0.
1,
#5320
0)
#5330
1)
b00000000000000000000000000101100 1
b10 2
1-
#5340
0)
#5350
1)
b00 2
0,
0-
#5360
0)
#5370
1)
b00000000000000000000000000000000 1
#5380
0)
#5390
1)
b00000000000000000000000001100010 +
1,
#5400
0)
#5410
1)
b00000000000000000000000001100010 1
b10 2
1-
#5420
0)
#5430
1)
b00 2
0,
0-
#5440
0)
#5450
1)
b00000000000000000000000000000000 1
#5460
0)
#5470
1)
b00000000000000000000000011010001 +
b00000000000000000000000010110000 /
1.
1,
#5480
0)
#5490
1)
b01 2
1-
#5500
0)
#5510
1)
b00 2
0,
0-
#5520
0)
#5530
1)
#5540
0)
#5550
1)
b00000000000000000000000010100100 +
0.
1,
#5560
0)
#5570
1)
b00000000000000000000000010100100 1
b10 2
1-
#5580
0)
#5590
1)
b00 2
0,
0-
#5600
0)
#5610
1)
b00000000000000000000000000000000 1
#5620
0)
#5630
1)
b00000000000000000000000001000110 +
b00000000000000000000000000000010 /
1.
1,
#5640
0)
#5650
1)
b01 2
1-
#5660
0)
#5670
1)
b00 2
0,
0-
#5680
0)
#5690
1)
#5700
0)
#5710
1)
b00000000000000000000000010000011 +
0.
1,
#5720
0)
#5730
1)
b00000000000000000000000011110010 1
b10 2
1-
#5740
0)
#5750
1)
b00 2
0,
0-
#5760
0)
#5770
1)
b00000000000000000000000000000000 1
#5780
0)
#5790
1)
b00000000000000000000000011100101 +
b00000000000000000000000011111010 /
1.
1,
#5800
0)
#5810
1)
b01 2
1-
#5820
0)
#5830
1)
b00 2
0,
0-
#5840
0)
#5850
1)
#5860
0)
#5870
1)
b00000000000000000000000011010100 +
b00000000000000000000000000110100 /
1,
#5880
0)
#5890
1)
b01 2
1-
#5900
0)
#5910
1)
b00 2
0,
0-
#5920
0)
#5930
1)
#5940
0)
#5950
1)
b00000000000000000000000001110100 +
b00000000000000000000000011010100 /
1,
#5960
0)
#5970
1)
b01 2
1-
#5980
0)
#5990
1)
b00 2
0,
0-
#6000
0)
#6010
1)
#6020
0)
#6030
1)
b00000000000000000000000000101011 +
b00000000000000000000000001011011 /
1,
#6040
0)
#6050
1)
b01 2
1-
#6060
0)
#6070
1)
b00 2
0,
0-
#6080
0)
#6090
1)
#6100
0)
#6110
1)
b00000000000000000000000000110010 +
0.
1,
#6120
0)
#6130
1)
b00000000000000000000000000110010 1
b10 2
1-
#6140
0)
#6150
1)
b00 2
0,
0-
#6160
0)
#6170
1)
b00000000000000000000000000000000 1
#6180
0)
#6190
1)
b00000000000000000000000001111110 +
b00000000000000000000000000101001 /
1.
1,
#6200
0)
#6210
1)
b01 2
1-
#6220
0)
#6230
1)
b00 2
0,
0-
#6240
0)
#6250
1)
#6260
0)
#6270
1)
b00000000000000000000000011110010 +
0.
1,
#6280
0)
#6290
1)
b00000000000000000000000011110010 1
b10 2
1-
#6300
0)
#6310
1)
b00 2
0,
0-
#6320
0)
#6330
1)
b00000000000000000000000000000000 1
#6340
0)
#6350
1)
b00000000000000000000000001010111 +
1,
#6360
0)
#6370
1)
b00000000000000000000000001010111 1
b10 2
1-
#6380
0)
#6390
1)
b00 2
0,
0-
#6400
0)
#6410
1)
b00000000000000000000000000000000 1
